/home/201563/Public/rep/hadoopignite/repo1/MapReduce/src/main/java/com/piotrek/mapreduce/SortEntropy.java
/home/201563/Public/rep/hadoopignite/repo1/MapReduce/src/main/java/com/piotrek/mapreduce/startJob.java
/home/201563/Public/rep/hadoopignite/repo1/MapReduce/src/main/java/com/piotrek/mapreduce/MapperEntropy.java
/home/201563/Public/rep/hadoopignite/repo1/MapReduce/src/main/java/com/piotrek/mapreduce/ReducerEntropy.java
/home/201563/Public/rep/hadoopignite/repo1/MapReduce/src/main/java/com/piotrek/mapreduce/getResult.java
